// Jest Snapshot v1, https://goo.gl/fbAQLP

exports[`HCompareContainer renders correctly 1`] = `
"<div id=\\"compare\\" class=\\"ui raised very text container segment\\" style=\\"width: auto;\\">
  <div id=\\"compare-loader\\" class=\\"ui inverted dimmer\\">
    <div class=\\"ui indeterminate text loader\\">Loading...</div>
  </div>
  <div id=\\"compare-textpane\\" class=\\"container-textpane\\"><span><h3 id=\\"numerical-classification\\">Numerical classification</h3>
<p>Compare the result of the hotspot analysis with a numerical classification of the
selected or another attribute.</p>
</span></div>
  <div id=\\"compare-formpane\\" class=\\"container-formpane\\">
    <form id=\\"compare-form\\" class=\\"compare-container\\">
      <p><label for=\\"compare-attribute-compare\\">
          Attribute to compare
        </label> <select></select></p>
      <p><label for=\\"compare-classify-clsnum\\">
          Number of classes
        </label> <select>
          <option>5</option>
          <option>6</option>
          <option>7</option>
          <option>8</option>
          <option>9</option>
          <option>10</option>
          <option>11</option>
          <option>12</option>
          <option>13</option>
          <option>14</option>
          <option>15</option>
        </select></p>
      <p><label for=\\"compare-classify-method\\">
          Classification method
        </label> <select>
          <option value=\\"ckmeans\\">Ckmeans (Jenks)</option>
          <option value=\\"quantiles\\">Quantiles</option>
          <option value=\\"equal\\">Equal Interval</option>
        </select></p>
      <p><label for=\\"compare-classify-color\\"> Color scale </label> <select>
          <option>YlGnBu</option>
          <option>RdPu</option>
          <option>YlOrBr</option>
        </select></p>
      <p><button id=\\"compare-button\\" class=\\"compare-container-compare-button\\">
          Classify
        </button> <button id=\\"stop-compare-button\\" disabled=\\"disabled\\" class=\\"compare-container-stop-compare-button\\">
          Remove slider
        </button></p>
    </form>
  </div>
  <div id=\\"compare-errorpane\\" class=\\"container-errorpane\\"></div>
  <div id=\\"compare-msgpane\\" class=\\"container-msgpane\\"></div>
  <div id=\\"compare-accordionpane\\" class=\\"container-accordionpane\\"></div>
</div>"
`;
