// Jest Snapshot v1, https://goo.gl/fbAQLP

exports[`HMoranContainer renders correctly 1`] = `
"<div id=\\"moran\\" class=\\"ui raised very text container segment\\" style=\\"width: auto;\\">
  <div id=\\"moran-loader\\" class=\\"ui inverted dimmer\\">
    <div class=\\"ui indeterminate text loader\\">Loading...</div>
  </div>
  <div id=\\"moran-textpane\\" class=\\"container-textpane\\"><span><h3 id=\\"cluster-tendency\\">Cluster tendency</h3>
<p>Check whether the selected attribute shows a tendency to be spatially clustered or
appears spatially evenly distributed (see image below). If there is a low cluster
tendency  a hotspot analysis will not bring further insights.</p>
</span></div>
  <div id=\\"moran-formpane\\" class=\\"container-formpane\\"><button id=\\"moran-button\\">Analyze</button>
    <div id=\\"h-moran-result\\"><img src=\\"http://localhost/img/spatial_autocorrelation.png\\" width=\\"100%\\">
      <!---->
      <!---->
    </div>
  </div>
  <div id=\\"moran-errorpane\\" class=\\"container-errorpane\\"></div>
  <div id=\\"moran-msgpane\\" class=\\"container-msgpane\\"></div>
  <div id=\\"moran-accordionpane\\" class=\\"container-accordionpane\\"></div>
</div>"
`;

exports[`HMoranContainer results shows correct text for clustered result 1`] = `
"<div id=\\"moran\\" class=\\"ui raised very text container segment\\" style=\\"width: auto;\\">
  <div id=\\"moran-loader\\" class=\\"ui inverted dimmer\\">
    <div class=\\"ui indeterminate text loader\\">Loading...</div>
  </div>
  <div id=\\"moran-textpane\\" class=\\"container-textpane\\"><span><h3 id=\\"cluster-tendency\\">Cluster tendency</h3>
<p>Check whether the selected attribute shows a tendency to be spatially clustered or
appears spatially evenly distributed (see image below). If there is a low cluster
tendency  a hotspot analysis will not bring further insights.</p>
</span></div>
  <div id=\\"moran-formpane\\" class=\\"container-formpane\\"><button id=\\"moran-button\\">Analyze</button>
    <div id=\\"h-moran-result\\"><img src=\\"http://localhost/img/spatial_autocorrelation.png\\" width=\\"100%\\"> <canvas width=\\"448px\\" height=\\"60px\\" style=\\"width: 448px; height: 60px;\\"></canvas> <span>The selected attribute appears to be spatially clustered</span></div>
  </div>
  <div id=\\"moran-errorpane\\" class=\\"container-errorpane\\"></div>
  <div id=\\"moran-msgpane\\" class=\\"container-msgpane\\"></div>
  <div id=\\"moran-accordionpane\\" class=\\"container-accordionpane\\"></div>
</div>"
`;

exports[`HMoranContainer results shows correct text for dispersed result 1`] = `
"<div id=\\"moran\\" class=\\"ui raised very text container segment\\" style=\\"width: auto;\\">
  <div id=\\"moran-loader\\" class=\\"ui inverted dimmer\\">
    <div class=\\"ui indeterminate text loader\\">Loading...</div>
  </div>
  <div id=\\"moran-textpane\\" class=\\"container-textpane\\"><span><h3 id=\\"cluster-tendency\\">Cluster tendency</h3>
<p>Check whether the selected attribute shows a tendency to be spatially clustered or
appears spatially evenly distributed (see image below). If there is a low cluster
tendency  a hotspot analysis will not bring further insights.</p>
</span></div>
  <div id=\\"moran-formpane\\" class=\\"container-formpane\\"><button id=\\"moran-button\\">Analyze</button>
    <div id=\\"h-moran-result\\"><img src=\\"http://localhost/img/spatial_autocorrelation.png\\" width=\\"100%\\"> <canvas width=\\"448px\\" height=\\"60px\\" style=\\"width: 448px; height: 60px;\\"></canvas> <span>The selected attribute appears to be spatially evenly distributed</span></div>
  </div>
  <div id=\\"moran-errorpane\\" class=\\"container-errorpane\\"></div>
  <div id=\\"moran-msgpane\\" class=\\"container-msgpane\\"></div>
  <div id=\\"moran-accordionpane\\" class=\\"container-accordionpane\\"></div>
</div>"
`;

exports[`HMoranContainer results shows correct text for random result 1`] = `
"<div id=\\"moran\\" class=\\"ui raised very text container segment\\" style=\\"width: auto;\\">
  <div id=\\"moran-loader\\" class=\\"ui inverted dimmer\\">
    <div class=\\"ui indeterminate text loader\\">Loading...</div>
  </div>
  <div id=\\"moran-textpane\\" class=\\"container-textpane\\"><span><h3 id=\\"cluster-tendency\\">Cluster tendency</h3>
<p>Check whether the selected attribute shows a tendency to be spatially clustered or
appears spatially evenly distributed (see image below). If there is a low cluster
tendency  a hotspot analysis will not bring further insights.</p>
</span></div>
  <div id=\\"moran-formpane\\" class=\\"container-formpane\\"><button id=\\"moran-button\\">Analyze</button>
    <div id=\\"h-moran-result\\"><img src=\\"http://localhost/img/spatial_autocorrelation.png\\" width=\\"100%\\">
      <!----> <span>The spatial distribution of the selected attribute is not statistically significant</span></div>
  </div>
  <div id=\\"moran-errorpane\\" class=\\"container-errorpane\\"></div>
  <div id=\\"moran-msgpane\\" class=\\"container-msgpane\\"></div>
  <div id=\\"moran-accordionpane\\" class=\\"container-accordionpane\\"></div>
</div>"
`;
