// Jest Snapshot v1, https://goo.gl/fbAQLP

exports[`BaseItem renders correctly 1`] = `"<li><a href=\\"#someName\\" role=\\"tab\\"><i class=\\"fa bla\\"></i></a></li>"`;

exports[`BaseItem with address and external link 1`] = `"<li><a href=\\"https://someaddress.xyz\\" role=\\"tab\\" target=\\"_blank\\"><i class=\\"fa bla\\"></i></a></li>"`;
